[{"action": "Buy Flowers", "done":false},
    {"action": "Get Shoes", "done":false},
    {"action": "Collect Tickets", "done":true},
    {"action": "Call dude", "done":false},
    {"action": "Cure the Zika fever", "done":false},
    {"action": "Cure Ebola", "done":false},
    {"action": "Cure Cancer", "done":false},
    {"action": "... (wait a little bit)", "done":false},
    {"action": "Profit", "done":false}]
